%YAML 1.1
%TAG !u! tag:unity3d.com,2011:
--- !u!114 &11400000
MonoBehaviour:
  m_ObjectHideFlags: 0
  m_CorrespondingSourceObject: {fileID: 0}
  m_PrefabInstance: {fileID: 0}
  m_PrefabAsset: {fileID: 0}
  m_GameObject: {fileID: 0}
  m_Enabled: 1
  m_EditorHideFlags: 0
  m_Script: {fileID: 11500000, guid: fe70c73b5b03433449319ef88154a2ee, type: 3}
  m_Name: Wave_2
  m_EditorClassIdentifier: 
  staminaEnemy: {fileID: 5138059015787822994, guid: 3f80a3fa1ac6ce6469bf8d1d1df8ed5c,
    type: 3}
  numberOfStaminaEnemy: 2
  manaEnemy: {fileID: 5138059015787822994, guid: d71e09fefcbd28f45925ad1a20d80f3a,
    type: 3}
  numberOfManaEnemy: 1
  healthEnemy: {fileID: 8317329567973449746, guid: 3bed16cf114967e45bb4a5b73493c454,
    type: 3}
  numberOfHealthEnemy: 1
